<svg width="20" height="4" viewBox="0 0 20 4" fill="none" xmlns="http://www.w3.org/2000/svg">
<rect x="20" y="0.461426" width="3.07692" height="20" rx="1" transform="rotate(90 20 0.461426)" fill="url(#paint0_linear)"/>
<defs>
<linearGradient id="paint0_linear" x1="20.6769" y1="2.92809" x2="25.3259" y2="3.64331" gradientUnits="userSpaceOnUse">
<stop stop-color="#11DA85"/>
<stop offset="1" stop-color="#009F9F"/>
</linearGradient>
</defs>
</svg>
